@startuml
start
partition Setup {
    :initialize();
    :run();
    :initialize()
    results = SimulationResults();
    :run();
}
-> You can put text on arrows;
partition Simulation {

while (results.marginOfError ?) is (> threshold )
    :runWithNThread(concurentThread);
    fork
        :MCSample tread 1;
    fork again
        :...;
    fork again
        :MCSample tread n;
    end fork
   :Update results;
endwhile (< threshold)
-[#gray,bold]->
:return result;
}
end
@enduml